{
"results": [
{
"utc_offset": 7200000,
"time": 1380124800000,
"waitlist_count": 0,
"yes_rsvp_count": 6,
"event_url": "http://www.meetup.com/NNUG-Kristiansand/events/qghqwdyrmbhc/",
"name": "NNUG Møte"
},
{
"utc_offset": 3600000,
"time": 1383152400000,
"waitlist_count": 0,
"yes_rsvp_count": 6,
"event_url": "http://www.meetup.com/NNUG-Kristiansand/events/qghqwdyrnbnc/",
"name": "NNUG Møte"
},
{
"utc_offset": 3600000,
"time": 1385571600000,
"waitlist_count": 0,
"yes_rsvp_count": 6,
"event_url": "http://www.meetup.com/NNUG-Kristiansand/events/qghqwdyrpbkc/",
"name": "NNUG Møte"
}
],
"meta": {
"lon": "",
"count": 3,
"signed_url": "http://api.meetup.com/2/events?status=upcoming&order=time&limited_events=False&group_urlname=nnug-kristiansand&desc=false&offset=0&format=json&only=name%2Cevent_url%2Crsvp_limit%2Cvenue%2Cutc_offset%2Ctime%2Cwaitlist_count%2Cyes_rsvp_count%2C&page=3&fields=&sig_id=97103452&sig=217f24aa462c67676f35a2b8eaa2ddac055bf481",
"link": "http://www.meetup.com/2/events",
"next": "http://www.meetup.com/2/events?status=upcoming&order=time&limited_events=False&group_urlname=nnug-kristiansand&desc=false&offset=1&format=json&only=name%2Cevent_url%2Crsvp_limit%2Cvenue%2Cutc_offset%2Ctime%2Cwaitlist_count%2Cyes_rsvp_count%2C&page=3&fields=&sign=true",
"total_count": 11,
"url": "http://www.meetup.com/2/events?status=upcoming&order=time&limited_events=False&group_urlname=nnug-kristiansand&desc=false&offset=0&format=json&only=name%2Cevent_url%2Crsvp_limit%2Cvenue%2Cutc_offset%2Ctime%2Cwaitlist_count%2Cyes_rsvp_count%2C&page=3&fields=&sign=true",
"id": "",
"title": "Meetup Events v2",
"updated": 1375462868551,
"description": "Access Meetup events using a group, member, or event id. Events in private groups are available only to authenticated members of those groups. To search events by topic or location, see [Open Events](/meetup_api/docs/2/open_events).",
"method": "Events",
"lat": ""
}
}